This is pdfTeX, Version 3.141592653-2.6-1.40.24 (TeX Live 2022/Arch Linux) (preloaded format=pdflatex 2022.4.30)  8 JUN 2022 09:34
entering extended mode
 restricted \write18 enabled.
 %&-line parsing enabled.
**paper.tex
(./paper.tex
LaTeX2e <2021-11-15> patch level 1
L3 programming layer <2022-04-10>
(/usr/share/texmf-dist/tex/latex/base/article.cls
Document Class: article 2021/10/04 v1.4n Standard LaTeX document class
(/usr/share/texmf-dist/tex/latex/base/size10.clo
File: size10.clo 2021/10/04 v1.4n Standard LaTeX file (size option)
)
\c@part=\count185
\c@section=\count186
\c@subsection=\count187
\c@subsubsection=\count188
\c@paragraph=\count189
\c@subparagraph=\count190
\c@figure=\count191
\c@table=\count192
\abovecaptionskip=\skip47
\belowcaptionskip=\skip48
\bibindent=\dimen138
)
(/usr/share/texmf-dist/tex/latex/biblatex/biblatex.sty
Package: biblatex 2022/02/02 v3.17 programmable bibliographies (PK/MW)

(/usr/share/texmf-dist/tex/generic/pdftexcmds/pdftexcmds.sty
Package: pdftexcmds 2020-06-27 v0.33 Utility functions of pdfTeX for LuaTeX (HO
)

(/usr/share/texmf-dist/tex/generic/infwarerr/infwarerr.sty
Package: infwarerr 2019/12/03 v1.5 Providing info/warning/error messages (HO)
)
(/usr/share/texmf-dist/tex/generic/iftex/iftex.sty
Package: iftex 2022/02/03 v1.0f TeX engine tests
)
(/usr/share/texmf-dist/tex/generic/ltxcmds/ltxcmds.sty
Package: ltxcmds 2020-05-10 v1.25 LaTeX kernel commands for general use (HO)
)
Package pdftexcmds Info: \pdf@primitive is available.
Package pdftexcmds Info: \pdf@ifprimitive is available.
Package pdftexcmds Info: \pdfdraftmode found.
)
(/usr/share/texmf-dist/tex/latex/etoolbox/etoolbox.sty
Package: etoolbox 2020/10/05 v2.5k e-TeX tools for LaTeX (JAW)
\etb@tempcnta=\count193
)
(/usr/share/texmf-dist/tex/latex/graphics/keyval.sty
Package: keyval 2014/10/28 v1.15 key=value parser (DPC)
\KV@toks@=\toks16
)
(/usr/share/texmf-dist/tex/latex/kvoptions/kvoptions.sty
Package: kvoptions 2020-10-07 v3.14 Key value format for package options (HO)

(/usr/share/texmf-dist/tex/generic/kvsetkeys/kvsetkeys.sty
Package: kvsetkeys 2019/12/15 v1.18 Key value parser (HO)
))
(/usr/share/texmf-dist/tex/latex/logreq/logreq.sty
Package: logreq 2010/08/04 v1.0 xml request logger
\lrq@indent=\count194

(/usr/share/texmf-dist/tex/latex/logreq/logreq.def
File: logreq.def 2010/08/04 v1.0 logreq spec v1.0
))
(/usr/share/texmf-dist/tex/latex/base/ifthen.sty
Package: ifthen 2020/11/24 v1.1c Standard LaTeX ifthen package (DPC)
)
(/usr/share/texmf-dist/tex/latex/url/url.sty
\Urlmuskip=\muskip16
Package: url 2013/09/16  ver 3.4  Verb mode for urls, etc.
)
\c@tabx@nest=\count195
\c@listtotal=\count196
\c@listcount=\count197
\c@liststart=\count198
\c@liststop=\count199
\c@citecount=\count266
\c@citetotal=\count267
\c@multicitecount=\count268
\c@multicitetotal=\count269
\c@instcount=\count270
\c@maxnames=\count271
\c@minnames=\count272
\c@maxitems=\count273
\c@minitems=\count274
\c@citecounter=\count275
\c@maxcitecounter=\count276
\c@savedcitecounter=\count277
\c@uniquelist=\count278
\c@uniquename=\count279
\c@refsection=\count280
\c@refsegment=\count281
\c@maxextratitle=\count282
\c@maxextratitleyear=\count283
\c@maxextraname=\count284
\c@maxextradate=\count285
\c@maxextraalpha=\count286
\c@abbrvpenalty=\count287
\c@highnamepenalty=\count288
\c@lownamepenalty=\count289
\c@maxparens=\count290
\c@parenlevel=\count291
\blx@tempcnta=\count292
\blx@tempcntb=\count293
\blx@tempcntc=\count294
\c@blx@maxsection=\count295
\c@blx@maxsegment@0=\count296
\blx@notetype=\count297
\blx@parenlevel@text=\count298
\blx@parenlevel@foot=\count299
\c@blx@sectionciteorder@0=\count300
\blx@entrysetcounter=\count301
\blx@biblioinstance=\count302
\labelnumberwidth=\skip49
\labelalphawidth=\skip50
\biblabelsep=\skip51
\bibitemsep=\skip52
\bibnamesep=\skip53
\bibinitsep=\skip54
\bibparsep=\skip55
\bibhang=\skip56
\blx@bcfin=\read2
\blx@bcfout=\write3
\blx@langwohyphens=\language87
\c@mincomprange=\count303
\c@maxcomprange=\count304
\c@mincompwidth=\count305
Package biblatex Info: Trying to load biblatex default data model...
Package biblatex Info: ... file 'blx-dm.def' found.

(/usr/share/texmf-dist/tex/latex/biblatex/blx-dm.def
File: blx-dm.def 2022/02/02 v3.17 biblatex localization (PK/MW)
)
Package biblatex Info: Trying to load biblatex style data model...
Package biblatex Info: ... file 'authoryear-icomp.dbx' not found.
Package biblatex Info: Trying to load biblatex custom data model...
Package biblatex Info: ... file 'biblatex-dm.cfg' not found.
\c@afterword=\count306
\c@savedafterword=\count307
\c@annotator=\count308
\c@savedannotator=\count309
\c@author=\count310
\c@savedauthor=\count311
\c@bookauthor=\count312
\c@savedbookauthor=\count313
\c@commentator=\count314
\c@savedcommentator=\count315
\c@editor=\count316
\c@savededitor=\count317
\c@editora=\count318
\c@savededitora=\count319
\c@editorb=\count320
\c@savededitorb=\count321
\c@editorc=\count322
\c@savededitorc=\count323
\c@foreword=\count324
\c@savedforeword=\count325
\c@holder=\count326
\c@savedholder=\count327
\c@introduction=\count328
\c@savedintroduction=\count329
\c@namea=\count330
\c@savednamea=\count331
\c@nameb=\count332
\c@savednameb=\count333
\c@namec=\count334
\c@savednamec=\count335
\c@translator=\count336
\c@savedtranslator=\count337
\c@shortauthor=\count338
\c@savedshortauthor=\count339
\c@shorteditor=\count340
\c@savedshorteditor=\count341
\c@labelname=\count342
\c@savedlabelname=\count343
\c@institution=\count344
\c@savedinstitution=\count345
\c@lista=\count346
\c@savedlista=\count347
\c@listb=\count348
\c@savedlistb=\count349
\c@listc=\count350
\c@savedlistc=\count351
\c@listd=\count352
\c@savedlistd=\count353
\c@liste=\count354
\c@savedliste=\count355
\c@listf=\count356
\c@savedlistf=\count357
\c@location=\count358
\c@savedlocation=\count359
\c@organization=\count360
\c@savedorganization=\count361
\c@origlocation=\count362
\c@savedoriglocation=\count363
\c@origpublisher=\count364
\c@savedorigpublisher=\count365
\c@publisher=\count366
\c@savedpublisher=\count367
\c@language=\count368
\c@savedlanguage=\count369
\c@origlanguage=\count370
\c@savedoriglanguage=\count371
\c@pageref=\count372
\c@savedpageref=\count373
\shorthandwidth=\skip57
\shortjournalwidth=\skip58
\shortserieswidth=\skip59
\shorttitlewidth=\skip60
\shortauthorwidth=\skip61
\shorteditorwidth=\skip62
\locallabelnumberwidth=\skip63
\locallabelalphawidth=\skip64
\localshorthandwidth=\skip65
\localshortjournalwidth=\skip66
\localshortserieswidth=\skip67
\localshorttitlewidth=\skip68
\localshortauthorwidth=\skip69
\localshorteditorwidth=\skip70
Package biblatex Info: Trying to load compatibility code...
Package biblatex Info: ... file 'blx-compat.def' found.

(/usr/share/texmf-dist/tex/latex/biblatex/blx-compat.def
File: blx-compat.def 2022/02/02 v3.17 biblatex compatibility (PK/MW)
)
Package biblatex Info: Trying to load generic definitions...
Package biblatex Info: ... file 'biblatex.def' found.

(/usr/share/texmf-dist/tex/latex/biblatex/biblatex.def
File: biblatex.def 2022/02/02 v3.17 biblatex compatibility (PK/MW)
\c@textcitecount=\count374
\c@textcitetotal=\count375
\c@textcitemaxnames=\count376
\c@biburlbigbreakpenalty=\count377
\c@biburlbreakpenalty=\count378
\c@biburlnumpenalty=\count379
\c@biburlucpenalty=\count380
\c@biburllcpenalty=\count381
\biburlbigskip=\muskip17
\biburlnumskip=\muskip18
\biburlucskip=\muskip19
\biburllcskip=\muskip20
\c@smartand=\count382
)
Package biblatex Info: Trying to load bibliography style 'authoryear-icomp'...
Package biblatex Info: ... file 'authoryear-icomp.bbx' found.

(/usr/share/texmf-dist/tex/latex/biblatex/bbx/authoryear-icomp.bbx
File: authoryear-icomp.bbx 2022/02/02 v3.17 biblatex bibliography style (PK/MW)

Package biblatex Info: Trying to load bibliography style 'authoryear'...
Package biblatex Info: ... file 'authoryear.bbx' found.

(/usr/share/texmf-dist/tex/latex/biblatex/bbx/authoryear.bbx
File: authoryear.bbx 2022/02/02 v3.17 biblatex bibliography style (PK/MW)
Package biblatex Info: Trying to load bibliography style 'standard'...
Package biblatex Info: ... file 'standard.bbx' found.

(/usr/share/texmf-dist/tex/latex/biblatex/bbx/standard.bbx
File: standard.bbx 2022/02/02 v3.17 biblatex bibliography style (PK/MW)
\c@bbx:relatedcount=\count383
\c@bbx:relatedtotal=\count384
)))
Package biblatex Info: Trying to load citation style 'authoryear-icomp'...
Package biblatex Info: ... file 'authoryear-icomp.cbx' found.

(/usr/share/texmf-dist/tex/latex/biblatex/cbx/authoryear-icomp.cbx
File: authoryear-icomp.cbx 2022/02/02 v3.17 biblatex citation style (PK/MW)
Package biblatex Info: Redefining '\cite'.
Package biblatex Info: Redefining '\parencite'.
Package biblatex Info: Redefining '\footcite'.
Package biblatex Info: Redefining '\footcitetext'.
Package biblatex Info: Redefining '\smartcite'.
Package biblatex Info: Redefining '\textcite'.
Package biblatex Info: Redefining '\textcites'.
Package biblatex Info: Redefining '\cites'.
Package biblatex Info: Redefining '\parencites'.
Package biblatex Info: Redefining '\footcites'.
Package biblatex Info: Redefining '\footcitetexts'.
Package biblatex Info: Redefining '\smartcites'.
)
Package biblatex Info: Trying to load configuration file...
Package biblatex Info: ... file 'biblatex.cfg' found.

(/usr/share/texmf-dist/tex/latex/biblatex/biblatex.cfg
File: biblatex.cfg 
)
Package biblatex Info: Input encoding 'utf8' detected.
Package biblatex Info: Document encoding is UTF8 ....

(/usr/share/texmf-dist/tex/latex/l3kernel/expl3.sty
Package: expl3 2022-04-10 L3 programming layer (loader) 

(/usr/share/texmf-dist/tex/latex/l3backend/l3backend-pdftex.def
File: l3backend-pdftex.def 2022-04-14 L3 backend support: PDF output (pdfTeX)
\l__color_backend_stack_int=\count385
\l__pdf_internal_box=\box50
))
Package biblatex Info: ... and expl3
(biblatex)             2022-04-10 L3 programming layer (loader) 
(biblatex)             is new enough (at least 2020/04/06),
(biblatex)             setting 'casechanger=expl3'.

(/usr/share/texmf-dist/tex/latex/biblatex/blx-case-expl3.sty
(/usr/share/texmf-dist/tex/latex/l3packages/xparse/xparse.sty
Package: xparse 2022-01-12 L3 Experimental document command parser
)
Package: blx-case-expl3 2022/02/02 v3.17 expl3 case changing code for biblatex
))
(/usr/share/texmf-dist/tex/latex/blindtext/blindtext.sty
Package: blindtext 2012/01/06 V2.0 blindtext-Package

(/usr/share/texmf-dist/tex/latex/tools/xspace.sty
Package: xspace 2014/10/28 v1.13 Space after command names (DPC,MH)
)
\c@blindtext=\count386
\c@Blindtext=\count387
\c@blind@countparstart=\count388
\blind@countxx=\count389
\blindtext@numBlindtext=\count390
\blind@countyy=\count391
\c@blindlist=\count392
\c@blindlistlevel=\count393
\c@blindlist@level=\count394
\blind@listitem=\count395
\c@blind@listcount=\count396
\c@blind@levelcount=\count397
\blind@mathformula=\count398
\blind@Mathformula=\count399
\c@blind@randomcount=\count400
\c@blind@randommax=\count401
\c@blind@pangramcount=\count402
\c@blind@pangrammax=\count403
)
(/usr/share/texmf-dist/tex/latex/tools/multicol.sty
Package: multicol 2021/10/28 v1.9b multicolumn formatting (FMi)
\c@tracingmulticols=\count404
\mult@box=\box51
\multicol@leftmargin=\dimen139
\c@unbalance=\count405
\c@collectmore=\count406
\doublecol@number=\count407
\multicoltolerance=\count408
\multicolpretolerance=\count409
\full@width=\dimen140
\page@free=\dimen141
\premulticols=\dimen142
\postmulticols=\dimen143
\multicolsep=\skip71
\multicolbaselineskip=\skip72
\partial@page=\box52
\last@line=\box53
\maxbalancingoverflow=\dimen144
\mult@rightbox=\box54
\mult@grightbox=\box55
\mult@firstbox=\box56
\mult@gfirstbox=\box57
\@tempa=\box58
\@tempa=\box59
\@tempa=\box60
\@tempa=\box61
\@tempa=\box62
\@tempa=\box63
\@tempa=\box64
\@tempa=\box65
\@tempa=\box66
\@tempa=\box67
\@tempa=\box68
\@tempa=\box69
\@tempa=\box70
\@tempa=\box71
\@tempa=\box72
\@tempa=\box73
\@tempa=\box74
\@tempa=\box75
\@tempa=\box76
\@tempa=\box77
\@tempa=\box78
\@tempa=\box79
\@tempa=\box80
\@tempa=\box81
\@tempa=\box82
\@tempa=\box83
\@tempa=\box84
\@tempa=\box85
\@tempa=\box86
\@tempa=\box87
\@tempa=\box88
\@tempa=\box89
\@tempa=\box90
\@tempa=\box91
\@tempa=\box92
\@tempa=\box93
\c@minrows=\count410
\c@columnbadness=\count411
\c@finalcolumnbadness=\count412
\last@try=\dimen145
\multicolovershoot=\dimen146
\multicolundershoot=\dimen147
\mult@nat@firstbox=\box94
\colbreak@box=\box95
\mc@col@check@num=\count413
)
(/usr/share/texmf-dist/tex/latex/ragged2e/ragged2e.sty
Package: ragged2e 2021/12/15 v3.1 ragged2e Package

(/usr/share/texmf-dist/tex/latex/footmisc/footmisc.sty
Package: footmisc 2022/03/08 v6.0d a miscellany of footnote facilities
\FN@temptoken=\toks17
\footnotemargin=\dimen148
\@outputbox@depth=\dimen149
Package footmisc Info: Declaring symbol style bringhurst on input line 695.
Package footmisc Info: Declaring symbol style chicago on input line 703.
Package footmisc Info: Declaring symbol style wiley on input line 712.
Package footmisc Info: Declaring symbol style lamport-robust on input line 723.

Package footmisc Info: Declaring symbol style lamport* on input line 743.
Package footmisc Info: Declaring symbol style lamport*-robust on input line 764
.
)
\CenteringLeftskip=\skip73
\RaggedLeftLeftskip=\skip74
\RaggedRightLeftskip=\skip75
\CenteringRightskip=\skip76
\RaggedLeftRightskip=\skip77
\RaggedRightRightskip=\skip78
\CenteringParfillskip=\skip79
\RaggedLeftParfillskip=\skip80
\RaggedRightParfillskip=\skip81
\JustifyingParfillskip=\skip82
\CenteringParindent=\skip83
\RaggedLeftParindent=\skip84
\RaggedRightParindent=\skip85
\JustifyingParindent=\skip86
)
(/usr/share/texmf-dist/tex/latex/geometry/geometry.sty
Package: geometry 2020/01/02 v5.9 Page Geometry

(/usr/share/texmf-dist/tex/generic/iftex/ifvtex.sty
Package: ifvtex 2019/10/25 v1.7 ifvtex legacy package. Use iftex instead.
)
\Gm@cnth=\count414
\Gm@cntv=\count415
\c@Gm@tempcnt=\count416
\Gm@bindingoffset=\dimen150
\Gm@wd@mp=\dimen151
\Gm@odd@mp=\dimen152
\Gm@even@mp=\dimen153
\Gm@layoutwidth=\dimen154
\Gm@layoutheight=\dimen155
\Gm@layouthoffset=\dimen156
\Gm@layoutvoffset=\dimen157
\Gm@dimlist=\toks18
)
(/usr/share/texmf-dist/tex/latex/amsmath/amsmath.sty
Package: amsmath 2021/10/15 v2.17l AMS math features
\@mathmargin=\skip87

For additional information on amsmath, use the `?' option.
(/usr/share/texmf-dist/tex/latex/amsmath/amstext.sty
Package: amstext 2021/08/26 v2.01 AMS text

(/usr/share/texmf-dist/tex/latex/amsmath/amsgen.sty
File: amsgen.sty 1999/11/30 v2.0 generic functions
\@emptytoks=\toks19
\ex@=\dimen158
))
(/usr/share/texmf-dist/tex/latex/amsmath/amsbsy.sty
Package: amsbsy 1999/11/29 v1.2d Bold Symbols
\pmbraise@=\dimen159
)
(/usr/share/texmf-dist/tex/latex/amsmath/amsopn.sty
Package: amsopn 2021/08/26 v2.02 operator names
)
\inf@bad=\count417
LaTeX Info: Redefining \frac on input line 234.
\uproot@=\count418
\leftroot@=\count419
LaTeX Info: Redefining \overline on input line 399.
\classnum@=\count420
\DOTSCASE@=\count421
LaTeX Info: Redefining \ldots on input line 496.
LaTeX Info: Redefining \dots on input line 499.
LaTeX Info: Redefining \cdots on input line 620.
\Mathstrutbox@=\box96
\strutbox@=\box97
\big@size=\dimen160
LaTeX Font Info:    Redeclaring font encoding OML on input line 743.
LaTeX Font Info:    Redeclaring font encoding OMS on input line 744.
\macc@depth=\count422
\c@MaxMatrixCols=\count423
\dotsspace@=\muskip21
\c@parentequation=\count424
\dspbrk@lvl=\count425
\tag@help=\toks20
\row@=\count426
\column@=\count427
\maxfields@=\count428
\andhelp@=\toks21
\eqnshift@=\dimen161
\alignsep@=\dimen162
\tagshift@=\dimen163
\tagwidth@=\dimen164
\totwidth@=\dimen165
\lineht@=\dimen166
\@envbody=\toks22
\multlinegap=\skip88
\multlinetaggap=\skip89
\mathdisplay@stack=\toks23
LaTeX Info: Redefining \[ on input line 2938.
LaTeX Info: Redefining \] on input line 2939.
)
(/usr/share/texmf-dist/tex/latex/amsfonts/amsfonts.sty
Package: amsfonts 2013/01/14 v3.01 Basic AMSFonts support
\symAMSa=\mathgroup4
\symAMSb=\mathgroup5
LaTeX Font Info:    Redeclaring math symbol \hbar on input line 98.
LaTeX Font Info:    Overwriting math alphabet `\mathfrak' in version `bold'
(Font)                  U/euf/m/n --> U/euf/b/n on input line 106.
)
(/usr/share/texmf-dist/tex/latex/xcolor/xcolor.sty
Package: xcolor 2021/10/31 v2.13 LaTeX color extensions (UK)

(/usr/share/texmf-dist/tex/latex/graphics-cfg/color.cfg
File: color.cfg 2016/01/02 v1.6 sample color configuration
)
Package xcolor Info: Driver file: pdftex.def on input line 227.

(/usr/share/texmf-dist/tex/latex/graphics-def/pdftex.def
File: pdftex.def 2020/10/05 v1.2a Graphics/color driver for pdftex
)
Package xcolor Info: Model `cmy' substituted by `cmy0' on input line 1352.
Package xcolor Info: Model `hsb' substituted by `rgb' on input line 1356.
Package xcolor Info: Model `RGB' extended on input line 1368.
Package xcolor Info: Model `HTML' substituted by `rgb' on input line 1370.
Package xcolor Info: Model `Hsb' substituted by `hsb' on input line 1371.
Package xcolor Info: Model `tHsb' substituted by `hsb' on input line 1372.
Package xcolor Info: Model `HSB' substituted by `hsb' on input line 1373.
Package xcolor Info: Model `Gray' substituted by `gray' on input line 1374.
Package xcolor Info: Model `wave' substituted by `hsb' on input line 1375.
)
(/usr/share/texmf-dist/tex/latex/caption/caption.sty
Package: caption 2022/03/01 v3.6b Customizing captions (AR)

(/usr/share/texmf-dist/tex/latex/caption/caption3.sty
Package: caption3 2022/03/17 v2.3b caption3 kernel (AR)
\caption@tempdima=\dimen167
\captionmargin=\dimen168
\caption@leftmargin=\dimen169
\caption@rightmargin=\dimen170
\caption@width=\dimen171
\caption@indent=\dimen172
\caption@parindent=\dimen173
\caption@hangindent=\dimen174
Package caption Info: Standard document class detected.
)
\c@caption@flags=\count429
\c@continuedfloat=\count430
)
(/usr/share/texmf-dist/tex/latex/graphics/graphicx.sty
Package: graphicx 2021/09/16 v1.2d Enhanced LaTeX Graphics (DPC,SPQR)

(/usr/share/texmf-dist/tex/latex/graphics/graphics.sty
Package: graphics 2021/03/04 v1.4d Standard LaTeX Graphics (DPC,SPQR)

(/usr/share/texmf-dist/tex/latex/graphics/trig.sty
Package: trig 2021/08/11 v1.11 sin cos tan (DPC)
)
(/usr/share/texmf-dist/tex/latex/graphics-cfg/graphics.cfg
File: graphics.cfg 2016/06/04 v1.11 sample graphics configuration
)
Package graphics Info: Driver file: pdftex.def on input line 107.
)
\Gin@req@height=\dimen175
\Gin@req@width=\dimen176
)
(/usr/share/texmf-dist/tex/latex/caption/subcaption.sty
Package: subcaption 2022/01/07 v1.5 Sub-captions (AR)
\c@subfigure=\count431
\c@subtable=\count432
)
\@quotelevel=\count433
\@quotereset=\count434
 (./paper.aux

LaTeX Warning: Label `fig:pipeline' multiply defined.


LaTeX Warning: Label `tab:table1' multiply defined.


LaTeX Warning: Label `tab:table1' multiply defined.


LaTeX Warning: Label `tab:table2' multiply defined.


LaTeX Warning: Label `fig:outliers' multiply defined.


LaTeX Warning: Label `sub@fig:outliers' multiply defined.


LaTeX Warning: Label `fig:dense_cities' multiply defined.


LaTeX Warning: Label `sub@fig:dense_cities' multiply defined.

)
\openout1 = `paper.aux'.

LaTeX Font Info:    Checking defaults for OML/cmm/m/it on input line 28.
LaTeX Font Info:    ... okay on input line 28.
LaTeX Font Info:    Checking defaults for OMS/cmsy/m/n on input line 28.
LaTeX Font Info:    ... okay on input line 28.
LaTeX Font Info:    Checking defaults for OT1/cmr/m/n on input line 28.
LaTeX Font Info:    ... okay on input line 28.
LaTeX Font Info:    Checking defaults for T1/cmr/m/n on input line 28.
LaTeX Font Info:    ... okay on input line 28.
LaTeX Font Info:    Checking defaults for TS1/cmr/m/n on input line 28.
LaTeX Font Info:    ... okay on input line 28.
LaTeX Font Info:    Checking defaults for OMX/cmex/m/n on input line 28.
LaTeX Font Info:    ... okay on input line 28.
LaTeX Font Info:    Checking defaults for U/cmr/m/n on input line 28.
LaTeX Font Info:    ... okay on input line 28.
Package biblatex Info: Trying to load language 'english'...
Package biblatex Info: ... file 'english.lbx' found.
 (/usr/share/texmf-dist/tex/latex/biblatex/lbx/english.lbx
File: english.lbx 2022/02/02 v3.17 biblatex localization (PK/MW)
)
Package biblatex Info: Input encoding 'utf8' detected.
Package biblatex Info: Automatic encoding selection.
(biblatex)             Assuming data encoding 'utf8'.
\openout3 = `paper.bcf'.

Package biblatex Info: Trying to load bibliographic data...
Package biblatex Info: ... file 'paper.bbl' found.
 (./paper.bbl)
Package biblatex Info: Reference section=0 on input line 28.
Package biblatex Info: Reference segment=0 on input line 28.
Package ragged2e Info: ABD: executing \RaggedRight on input line 28.

*geometry* driver: auto-detecting
*geometry* detected driver: pdftex
*geometry* verbose mode - [ preamble ] result:
* driver: pdftex
* paper: <default>
* layout: <same size as paper>
* layoutoffset:(h,v)=(0.0pt,0.0pt)
* modes: 
* h-part:(L,W,R)=(54.2025pt, 505.89pt, 54.2025pt)
* v-part:(T,H,B)=(54.2025pt, 686.56499pt, 54.2025pt)
* \paperwidth=614.295pt
* \paperheight=794.96999pt
* \textwidth=505.89pt
* \textheight=686.56499pt
* \oddsidemargin=-18.06749pt
* \evensidemargin=-18.06749pt
* \topmargin=-55.06749pt
* \headheight=12.0pt
* \headsep=25.0pt
* \topskip=10.0pt
* \footskip=30.0pt
* \marginparwidth=65.0pt
* \marginparsep=11.0pt
* \columnsep=10.0pt
* \skip\footins=9.0pt plus 4.0pt minus 2.0pt
* \hoffset=0.0pt
* \voffset=0.0pt
* \mag=1000
* \@twocolumnfalse
* \@twosidefalse
* \@mparswitchfalse
* \@reversemarginfalse
* (1in=72.27pt=25.4mm, 1cm=28.453pt)

(/usr/share/texmf-dist/tex/context/base/mkii/supp-pdf.mkii
[Loading MPS to PDF converter (version 2006.09.02).]
\scratchcounter=\count435
\scratchdimen=\dimen177
\scratchbox=\box98
\nofMPsegments=\count436
\nofMParguments=\count437
\everyMPshowfont=\toks24
\MPscratchCnt=\count438
\MPscratchDim=\dimen178
\MPnumerator=\count439
\makeMPintoPDFobject=\count440
\everyMPtoPDFconversion=\toks25
) (/usr/share/texmf-dist/tex/latex/epstopdf-pkg/epstopdf-base.sty
Package: epstopdf-base 2020-01-24 v2.11 Base part for package epstopdf
Package epstopdf-base Info: Redefining graphics rule for `.eps' on input line 4
85.

(/usr/share/texmf-dist/tex/latex/latexconfig/epstopdf-sys.cfg
File: epstopdf-sys.cfg 2010/07/13 v1.3 Configuration of (r)epstopdf for TeX Liv
e
))
Package caption Info: Begin \AtBeginDocument code.
Package caption Info: End \AtBeginDocument code.
LaTeX Font Info:    Trying to load font information for U+msa on input line 35.


(/usr/share/texmf-dist/tex/latex/amsfonts/umsa.fd
File: umsa.fd 2013/01/14 v3.01 AMS symbols A
)
LaTeX Font Info:    Trying to load font information for U+msb on input line 35.


(/usr/share/texmf-dist/tex/latex/amsfonts/umsb.fd
File: umsb.fd 2013/01/14 v3.01 AMS symbols B
) [1

{/var/lib/texmf/fonts/map/pdftex/updmap/pdftex.map}] [2]
</home/nick/github_repos/Pollution-Autoencoders/paper-draft/images/pipeline.png
, id=20, 459.96844pt x 594.72188pt>
File: /home/nick/github_repos/Pollution-Autoencoders/paper-draft/images/pipelin
e.png Graphic file (type png)
<use /home/nick/github_repos/Pollution-Autoencoders/paper-draft/images/pipeline
.png>
Package pdftex.def Info: /home/nick/github_repos/Pollution-Autoencoders/paper-d
raft/images/pipeline.png  used on input line 82.
(pdftex.def)             Requested size: 284.5458pt x 369.88531pt.
</home/nick/github_repos/Pollution-Autoencoders/paper-draft/images/corr_matrix.
png, id=21, 806.26219pt x 684.30656pt>
File: /home/nick/github_repos/Pollution-Autoencoders/paper-draft/images/corr_ma
trix.png Graphic file (type png)
<use /home/nick/github_repos/Pollution-Autoencoders/paper-draft/images/corr_mat
rix.png>
Package pdftex.def Info: /home/nick/github_repos/Pollution-Autoencoders/paper-d
raft/images/corr_matrix.png  used on input line 102.
(pdftex.def)             Requested size: 354.12144pt x 300.55284pt.


LaTeX Warning: `!h' float specifier changed to `!ht'.

[3 </home/nick/github_repos/Pollution-Autoencoders/paper-draft/images/pipeline.
png (PNG copy)>]
</home/nick/github_repos/Pollution-Autoencoders/paper-draft/images/unencoded_r2
.png, id=29, 1172.12906pt x 647.41875pt>
File: /home/nick/github_repos/Pollution-Autoencoders/paper-draft/images/unencod
ed_r2.png Graphic file (type png)
<use /home/nick/github_repos/Pollution-Autoencoders/paper-draft/images/unencode
d_r2.png>
Package pdftex.def Info: /home/nick/github_repos/Pollution-Autoencoders/paper-d
raft/images/unencoded_r2.png  used on input line 141.
(pdftex.def)             Requested size: 404.71353pt x 223.53752pt.
 [4 </home/nick/github_repos/Pollution-Autoencoders/paper-draft/images/corr_mat
rix.png (PNG copy)>]

LaTeX Warning: `!h' float specifier changed to `!ht'.

[5 </home/nick/github_repos/Pollution-Autoencoders/paper-draft/images/unencoded
_r2.png (PNG copy)>] [6]
Overfull \hbox (11.83308pt too wide) in paragraph at lines 249--250
\OT1/cmr/m/n/10 er-ated by the PCA and AE mod-els. While PCA was over-all less 
noisy, we found that the au-toen-coder model achieved 
 []

</home/nick/github_repos/Pollution-Autoencoders/paper-draft/images/pca_all_dims
.png, id=41, 1218.80344pt x 691.08188pt>
File: /home/nick/github_repos/Pollution-Autoencoders/paper-draft/images/pca_all
_dims.png Graphic file (type png)
<use /home/nick/github_repos/Pollution-Autoencoders/paper-draft/images/pca_all_
dims.png>
Package pdftex.def Info: /home/nick/github_repos/Pollution-Autoencoders/paper-d
raft/images/pca_all_dims.png  used on input line 254.
(pdftex.def)             Requested size: 354.11345pt x 199.16429pt.
File: /home/nick/github_repos/Pollution-Autoencoders/paper-draft/images/pca_all
_dims.png Graphic file (type png)
<use /home/nick/github_repos/Pollution-Autoencoders/paper-draft/images/pca_all_
dims.png>
Package pdftex.def Info: /home/nick/github_repos/Pollution-Autoencoders/paper-d
raft/images/pca_all_dims.png  used on input line 261.
(pdftex.def)             Requested size: 354.11345pt x 199.16429pt.
[7 </home/nick/github_repos/Pollution-Autoencoders/paper-draft/images/pca_all_d
ims.png (PNG copy)>]
</home/nick/github_repos/Pollution-Autoencoders/paper-draft/images/region.png, 
id=46, 648.2619pt x 711.8595pt>
File: /home/nick/github_repos/Pollution-Autoencoders/paper-draft/images/region.
png Graphic file (type png)
<use /home/nick/github_repos/Pollution-Autoencoders/paper-draft/images/region.p
ng>
Package pdftex.def Info: /home/nick/github_repos/Pollution-Autoencoders/paper-d
raft/images/region.png  used on input line 273.
(pdftex.def)             Requested size: 202.35384pt x 170.71942pt.
</home/nick/github_repos/Pollution-Autoencoders/paper-draft/images/outside-us.p
ng, id=48, 648.2619pt x 711.8595pt>
File: /home/nick/github_repos/Pollution-Autoencoders/paper-draft/images/outside
-us.png Graphic file (type png)
<use /home/nick/github_repos/Pollution-Autoencoders/paper-draft/images/outside-
us.png>
Package pdftex.def Info: /home/nick/github_repos/Pollution-Autoencoders/paper-d
raft/images/outside-us.png  used on input line 277.
(pdftex.def)             Requested size: 202.35384pt x 170.71942pt.
</home/nick/github_repos/Pollution-Autoencoders/paper-draft/images/california.p
ng, id=49, 648.2619pt x 711.8595pt>
File: /home/nick/github_repos/Pollution-Autoencoders/paper-draft/images/califor
nia.png Graphic file (type png)
<use /home/nick/github_repos/Pollution-Autoencoders/paper-draft/images/californ
ia.png>
Package pdftex.def Info: /home/nick/github_repos/Pollution-Autoencoders/paper-d
raft/images/california.png  used on input line 281.
(pdftex.def)             Requested size: 202.35384pt x 170.71942pt.
</home/nick/github_repos/Pollution-Autoencoders/paper-draft/images/texas.png, i
d=50, 648.2619pt x 711.8595pt>
File: /home/nick/github_repos/Pollution-Autoencoders/paper-draft/images/texas.p
ng Graphic file (type png)
<use /home/nick/github_repos/Pollution-Autoencoders/paper-draft/images/texas.pn
g>
Package pdftex.def Info: /home/nick/github_repos/Pollution-Autoencoders/paper-d
raft/images/texas.png  used on input line 285.
(pdftex.def)             Requested size: 202.35384pt x 170.71942pt.
</home/nick/github_repos/Pollution-Autoencoders/paper-draft/images/new-york.png
, id=51, 648.2619pt x 711.8595pt>
File: /home/nick/github_repos/Pollution-Autoencoders/paper-draft/images/new-yor
k.png Graphic file (type png)
<use /home/nick/github_repos/Pollution-Autoencoders/paper-draft/images/new-york
.png>
Package pdftex.def Info: /home/nick/github_repos/Pollution-Autoencoders/paper-d
raft/images/new-york.png  used on input line 289.
(pdftex.def)             Requested size: 202.35384pt x 170.71942pt.
</home/nick/github_repos/Pollution-Autoencoders/paper-draft/images/minnesota.pn
g, id=52, 648.2619pt x 711.8595pt>
File: /home/nick/github_repos/Pollution-Autoencoders/paper-draft/images/minneso
ta.png Graphic file (type png)
<use /home/nick/github_repos/Pollution-Autoencoders/paper-draft/images/minnesot
a.png>
Package pdftex.def Info: /home/nick/github_repos/Pollution-Autoencoders/paper-d
raft/images/minnesota.png  used on input line 293.
(pdftex.def)             Requested size: 202.35384pt x 170.71942pt.

Overfull \hbox (3.33331pt too wide) in paragraph at lines 272--296
[][] [] 
 []


Overfull \hbox (3.33331pt too wide) in paragraph at lines 272--296
[] [] 
 []


Overfull \hbox (3.33331pt too wide) in paragraph at lines 272--296
[] []  
 []

[8 </home/nick/github_repos/Pollution-Autoencoders/paper-draft/images/region.pn
g> </home/nick/github_repos/Pollution-Autoencoders/paper-draft/images/outside-u
s.png> </home/nick/github_repos/Pollution-Autoencoders/paper-draft/images/calif
ornia.png> </home/nick/github_repos/Pollution-Autoencoders/paper-draft/images/t
exas.png> </home/nick/github_repos/Pollution-Autoencoders/paper-draft/images/ne
w-york.png> </home/nick/github_repos/Pollution-Autoencoders/paper-draft/images/
minnesota.png>]
</home/nick/github_repos/Pollution-Autoencoders/paper-draft/images/population.p
ng, id=62, 650.43pt x 714.0276pt>
File: /home/nick/github_repos/Pollution-Autoencoders/paper-draft/images/populat
ion.png Graphic file (type png)
<use /home/nick/github_repos/Pollution-Autoencoders/paper-draft/images/populati
on.png>
Package pdftex.def Info: /home/nick/github_repos/Pollution-Autoencoders/paper-d
raft/images/population.png  used on input line 307.
(pdftex.def)             Requested size: 252.94217pt x 284.52736pt.
</home/nick/github_repos/Pollution-Autoencoders/paper-draft/images/population_3
and4.png, id=63, 650.43pt x 714.0276pt>
File: /home/nick/github_repos/Pollution-Autoencoders/paper-draft/images/populat
ion_3and4.png Graphic file (type png)
<use /home/nick/github_repos/Pollution-Autoencoders/paper-draft/images/populati
on_3and4.png>
Package pdftex.def Info: /home/nick/github_repos/Pollution-Autoencoders/paper-d
raft/images/population_3and4.png  used on input line 311.
(pdftex.def)             Requested size: 252.94217pt x 284.52736pt.

Overfull \hbox (3.33331pt too wide) in paragraph at lines 306--314
[][] []  
 []

</home/nick/github_repos/Pollution-Autoencoders/paper-draft/images/o3-dim1.png,
 id=64, 887.315pt x 929.4725pt>
File: /home/nick/github_repos/Pollution-Autoencoders/paper-draft/images/o3-dim1
.png Graphic file (type png)
<use /home/nick/github_repos/Pollution-Autoencoders/paper-draft/images/o3-dim1.
png>
Package pdftex.def Info: /home/nick/github_repos/Pollution-Autoencoders/paper-d
raft/images/o3-dim1.png  used on input line 328.
(pdftex.def)             Requested size: 202.34512pt x 227.61638pt.
</home/nick/github_repos/Pollution-Autoencoders/paper-draft/images/o3-first.png
, id=65, 887.315pt x 929.4725pt>
File: /home/nick/github_repos/Pollution-Autoencoders/paper-draft/images/o3-firs
t.png Graphic file (type png)
<use /home/nick/github_repos/Pollution-Autoencoders/paper-draft/images/o3-first
.png>
Package pdftex.def Info: /home/nick/github_repos/Pollution-Autoencoders/paper-d
raft/images/o3-first.png  used on input line 334.
(pdftex.def)             Requested size: 202.34512pt x 227.61638pt.
</home/nick/github_repos/Pollution-Autoencoders/paper-draft/images/o3-dim2.png,
 id=66, 887.315pt x 929.4725pt>
File: /home/nick/github_repos/Pollution-Autoencoders/paper-draft/images/o3-dim2
.png Graphic file (type png)
<use /home/nick/github_repos/Pollution-Autoencoders/paper-draft/images/o3-dim2.
png>
Package pdftex.def Info: /home/nick/github_repos/Pollution-Autoencoders/paper-d
raft/images/o3-dim2.png  used on input line 340.
(pdftex.def)             Requested size: 202.34512pt x 227.61638pt.
</home/nick/github_repos/Pollution-Autoencoders/paper-draft/images/o3-last.png,
 id=67, 887.315pt x 929.4725pt>
File: /home/nick/github_repos/Pollution-Autoencoders/paper-draft/images/o3-last
.png Graphic file (type png)
<use /home/nick/github_repos/Pollution-Autoencoders/paper-draft/images/o3-last.
png>
Package pdftex.def Info: /home/nick/github_repos/Pollution-Autoencoders/paper-d
raft/images/o3-last.png  used on input line 346.
(pdftex.def)             Requested size: 202.34512pt x 227.61638pt.

Overfull \hbox (3.33331pt too wide) in paragraph at lines 326--350
[][] [] 
 []


Overfull \hbox (3.33331pt too wide) in paragraph at lines 326--350
[] []  
 []


LaTeX Warning: `!h' float specifier changed to `!ht'.

[9 </home/nick/github_repos/Pollution-Autoencoders/paper-draft/images/populatio
n.png> </home/nick/github_repos/Pollution-Autoencoders/paper-draft/images/popul
ation_3and4.png>] [10 </home/nick/github_repos/Pollution-Autoencoders/paper-dra
ft/images/o3-dim1.png> </home/nick/github_repos/Pollution-Autoencoders/paper-dr
aft/images/o3-first.png> </home/nick/github_repos/Pollution-Autoencoders/paper-
draft/images/o3-dim2.png> </home/nick/github_repos/Pollution-Autoencoders/paper
-draft/images/o3-last.png>] [11]
Overfull \hbox (6.29652pt too wide) in paragraph at lines 366--366
\OT1/cmr/m/n/10 Data''. In: \OT1/cmr/m/it/10 2018 IEEE In-ter-na-tional Con-fer
-ence on Big Data (Big Data)\OT1/cmr/m/n/10 , pp. 2403{2412. \OT1/cmr/m/sc/10 d
oi\OT1/cmr/m/n/10 : $\OT1/cmtt/m/n/10 10 . 1109 / BigData . 
 []

[12] (./paper.aux)

LaTeX Warning: There were multiply-defined labels.

Package logreq Info: Writing requests to 'paper.run.xml'.
\openout1 = `paper.run.xml'.

 ) 
Here is how much of TeX's memory you used:
 13404 strings out of 478238
 254569 string characters out of 5850456
 973494 words of memory out of 5000000
 31487 multiletter control sequences out of 15000+600000
 480125 words of font info for 70 fonts, out of 8000000 for 9000
 1141 hyphenation exceptions out of 8191
 60i,12n,68p,1184b,1427s stack positions out of 5000i,500n,10000p,200000b,80000s
{/usr/share/texmf-dist/fonts/enc/dvips/cm-super/cm-super-ts1.enc}</usr/share/
texmf-dist/fonts/type1/public/amsfonts/cm/cmbx10.pfb></usr/share/texmf-dist/fon
ts/type1/public/amsfonts/cm/cmbx12.pfb></usr/share/texmf-dist/fonts/type1/publi
c/amsfonts/cm/cmbx9.pfb></usr/share/texmf-dist/fonts/type1/public/amsfonts/cm/c
mcsc10.pfb></usr/share/texmf-dist/fonts/type1/public/amsfonts/cm/cmmi10.pfb></u
sr/share/texmf-dist/fonts/type1/public/amsfonts/cm/cmmi7.pfb></usr/share/texmf-
dist/fonts/type1/public/amsfonts/cm/cmmi9.pfb></usr/share/texmf-dist/fonts/type
1/public/amsfonts/cm/cmr10.pfb></usr/share/texmf-dist/fonts/type1/public/amsfon
ts/cm/cmr12.pfb></usr/share/texmf-dist/fonts/type1/public/amsfonts/cm/cmr17.pfb
></usr/share/texmf-dist/fonts/type1/public/amsfonts/cm/cmr5.pfb></usr/share/tex
mf-dist/fonts/type1/public/amsfonts/cm/cmr6.pfb></usr/share/texmf-dist/fonts/ty
pe1/public/amsfonts/cm/cmr7.pfb></usr/share/texmf-dist/fonts/type1/public/amsfo
nts/cm/cmr8.pfb></usr/share/texmf-dist/fonts/type1/public/amsfonts/cm/cmr9.pfb>
</usr/share/texmf-dist/fonts/type1/public/amsfonts/cm/cmsy10.pfb></usr/share/te
xmf-dist/fonts/type1/public/amsfonts/cm/cmti10.pfb></usr/share/texmf-dist/fonts
/type1/public/amsfonts/cm/cmtt10.pfb></usr/share/texmf-dist/fonts/type1/public/
cm-super/sfrm1000.pfb>
Output written on paper.pdf (12 pages, 3015717 bytes).
PDF statistics:
 168 PDF objects out of 1000 (max. 8388607)
 87 compressed objects within 1 object stream
 0 named destinations out of 1000 (max. 500000)
 81 words of extra memory for PDF output out of 10000 (max. 10000000)

